{
    "pod": {
        "slika": "floor.png",
        "naziv": "Pod",
        "tip": "podloga"
    },
    "zid": {
        "slika": "wall.png",
        "naziv": "Zid",
        "tip": "podloga"
    },
    "trava": {
        "slika": "grass.png",
        "naziv": "Trava",
        "tip": "podloga"
    },
    "cvece": {
        "slika": "flowers.png",
        "naziv": "Cveće",
        "tip": "podloga"
    },
    "blato": {
        "slika": "blato.png",
        "naziv": "Blato",
        "tip": "podloga"
    },
    "pesak": {
        "slika": "desert.png",
        "naziv": "Pesak",
        "tip": "podloga"
    },
    "sneg": {
        "slika": "snow.png",
        "naziv": "Sneg",
        "tip": "podloga"
    },
    "voda": {
        "slika": "water.png",
        "naziv": "Voda",
        "tip": "podloga"
    },
    "led": {
        "slika": "ice.png",
        "naziv": "Led",
        "tip": "podloga"
    },
    "lava": {
        "slika": "lava.png",
        "naziv": "Lava",
        "tip": "podloga"
    },
    "pocetak": {
        "slika": "znak.png",
        "naziv": "Početak",
        "tip": "objekat",
        "boja": "#1fff44ff"
    },
    "cilj": {
        "slika": "znak.png",
        "naziv": "Cilj",
        "tip": "objekat",
        "boja": "#ff3b3bff"
    },
    "kapija": {
        "slika": "gate.png",
        "naziv": "Kapija",
        "tip": "objekat"
    },
    "kapija_zuta": {
        "slika": "gate.png",
        "naziv": "Žuta kapija",
        "tip": "objekat",
        "boja": "#ffe417ff"
    },
    "kapija_zelena": {
        "slika": "gate.png",
        "naziv": "Zelena kapija",
        "tip": "objekat",
        "boja": "#1fff44ff"
    },
    "kapija_plava": {
        "slika": "gate.png",
        "naziv": "Plava kapija",
        "tip": "objekat",
        "boja": "#177fffff"
    },
    "kapija_crvena": {
        "slika": "gate.png",
        "naziv": "Crvena kapija",
        "tip": "objekat",
        "boja": "#ff3b3bff"
    },
    "kljuc": {
        "slika": "item_key.png",
        "naziv": "Ključ",
        "tip": "objekat"
    },
    "kljuc_zuti": {
        "slika": "item_key.png",
        "naziv": "Žuti ključ",
        "tip": "objekat",
        "boja": "#f5d442cf"
    },
    "kljuc_zeleni": {
        "slika": "item_key.png",
        "naziv": "Zeleni ključ",
        "tip": "objekat",
        "boja": "#90f542af"
    },
    "kljuc_plavi": {
        "slika": "item_key.png",
        "naziv": "Plavi ključ",
        "tip": "objekat",
        "boja": "#4290f5af"
    },
    "kljuc_crveni": {
        "slika": "item_key.png",
        "naziv": "Crveni ključ",
        "tip": "objekat",
        "boja": "#ff3b3bcf"
    },
    "kovceg": {
        "slika": "kovceg.png",
        "naziv": "Kovčeg",
        "tip": "objekat"
    },
    "kovceg_zuti": {
        "slika": "kovceg.png",
        "naziv": "Žuti kovčeg",
        "tip": "objekat",
        "boja": "#f5d442df"
    },
    "kovceg_zeleni": {
        "slika": "kovceg.png",
        "naziv": "Zeleni kovčeg",
        "tip": "objekat",
        "boja": "#90f542ff"
    },
    "kovceg_plavi": {
        "slika": "kovceg.png",
        "naziv": "Plavi kovčeg",
        "tip": "objekat",
        "boja": "#4290ffff"
    },
    "kovceg_crveni": {
        "slika": "kovceg.png",
        "naziv": "Crveni kovčeg",
        "tip": "objekat",
        "boja": "#ff3b3bdf"
    },
    "paprika": {
        "slika": "paprika.png",
        "naziv": "Paprika",
        "tip": "objekat"
    },
    "sargarepa": {
        "slika": "sargarepa.png",
        "naziv": "Sargarepa",
        "tip": "objekat"
    }
}